<?xml version="1.0" encoding="utf-8"?>
<!-- Generator: Adobe Illustrator 21.0.0, SVG Export Plug-In . SVG Version: 6.00 Build 0)  -->
<svg version="1.1" id="Layer_1" xmlns="http://www.w3.org/2000/svg" xmlns:xlink="http://www.w3.org/1999/xlink" x="0px" y="0px"
	 viewBox="0 0 51 51" style="enable-background:new 0 0 51 51;" xml:space="preserve">
<g>
	<path d="M5.1,10.2H0v35.7C0,48.7,2.3,51,5.1,51h35.7v-5.1H5.1V10.2z M45.9,0H15.3c-2.8,0-5.1,2.3-5.1,5.1v30.6
		c0,2.8,2.3,5.1,5.1,5.1h30.6c2.8,0,5.1-2.3,5.1-5.1V5.1C51,2.3,48.7,0,45.9,0z M43.3,23H33.2v10.2H28V23H17.9v-5.1H28V7.7h5.1v10.2
		h10.2V23z"/>
</g>
</svg>
