<?xml version="1.0" encoding="utf-8"?>
<!-- Generator: Adobe Illustrator 21.0.0, SVG Export Plug-In . SVG Version: 6.00 Build 0)  -->
<svg version="1.1" id="Layer_1" xmlns="http://www.w3.org/2000/svg" xmlns:xlink="http://www.w3.org/1999/xlink" x="0px" y="0px"
	 viewBox="0 0 36 36" style="enable-background:new 0 0 36 36;" xml:space="preserve">
<g>
	<path d="M0,28.5V36h7.5l22.1-22.1l-7.5-7.5L0,28.5z M35.4,8.1c0.8-0.8,0.8-2,0-2.8l-4.7-4.7c-0.8-0.8-2-0.8-2.8,0l-3.7,3.7l7.5,7.5
		L35.4,8.1z"/>
</g>
</svg>
