<?xml version="1.0" encoding="utf-8"?>
<!-- Generator: Adobe Illustrator 21.0.0, SVG Export Plug-In . SVG Version: 6.00 Build 0)  -->
<svg version="1.1" id="Layer_1" xmlns="http://www.w3.org/2000/svg" xmlns:xlink="http://www.w3.org/1999/xlink" x="0px" y="0px"
	 viewBox="0 0 87 79" style="enable-background:new 0 0 87 79;" xml:space="preserve">
<g>
	<g>
		<g id="Clips_9_">
			<g>
				<path d="M80.4,6.6c-8.8-8.8-23-8.8-31.8,0L4.9,50.3c-6.6,6.6-6.6,17.3,0,23.8c5.4,5.4,13.6,6.3,20,2.8c0.7,0,1.3-0.3,1.8-0.8
					l43.7-43.7c4.4-4.4,4.4-11.5,0-15.9s-11.5-4.4-15.9,0L18.8,52.3c-1.1,1.1-1.1,2.9,0,4c1.1,1.1,2.9,1.1,4,0l35.8-35.8
					c2.2-2.2,5.8-2.2,7.9,0c2.2,2.2,2.2,5.8,0,7.9L24.8,70.2c-4.4,4.4-11.5,4.4-15.9,0s-4.4-11.5,0-15.9l43.7-43.7
					c6.6-6.6,17.3-6.6,23.8,0c6.6,6.6,6.6,17.3,0,23.8L36.7,74.1c-1.1,1.1-1.1,2.9,0,4c1.1,1.1,2.9,1.1,4,0l39.7-39.7
					C89.2,29.6,89.2,15.4,80.4,6.6z"/>
			</g>
		</g>
	</g>
</g>
</svg>
